##  ##    ##    ##   ##    ###    ##   ##  #####  ####  
##  ##  ##  ##  ##   ##  ##   ##  ##   ##  ##     ##  #  
##  ##  ##  ##  ###  ##  ##   ##  ##   ##  ##     ##  #  
######  ######  ## # ##  ##   ##  ##   ##  ###    ####  
##  ##  ##  ##  ##  ###  ##   ##  ##   ##  ##     ##  #  
##  ##  ##  ##  ##   ##  ##   ##   ## ##   ##     ##   #  
##  ##  ##  ##  ##   ##    ###       #     #####  ##   #  
          
Hanover Displays Ltd., http://www.hanoverdisplays.com 
IP connected TFT display 

software release based on
Arago Project http://arago-project.org 
[9;0]
